<?xml version="1.0" encoding="UTF-8" standalone="no"?>
<!-- Created with Inkscape (http://www.inkscape.org/) -->

<svg
   xmlns:dc="http://purl.org/dc/elements/1.1/"
   xmlns:cc="http://creativecommons.org/ns#"
   xmlns:rdf="http://www.w3.org/1999/02/22-rdf-syntax-ns#"
   xmlns:svg="http://www.w3.org/2000/svg"
   xmlns="http://www.w3.org/2000/svg"
   xmlns:xlink="http://www.w3.org/1999/xlink"
   xmlns:sodipodi="http://sodipodi.sourceforge.net/DTD/sodipodi-0.dtd"
   xmlns:inkscape="http://www.inkscape.org/namespaces/inkscape"
   width="380"
   height="380"
   viewBox="0 0 100.54167 100.54167"
   version="1.1"
   id="svg8"
   inkscape:version="0.92.3pre0 (0ab9bec, 2018-03-03)"
   sodipodi:docname="oathguardian.svg">
  <defs
     id="defs2">
    <filter
       inkscape:label="Button"
       inkscape:menu="Bevels"
       inkscape:menu-tooltip="Soft bevel, slightly depressed middle"
       style="color-interpolation-filters:sRGB"
       id="filter989">
      <feGaussianBlur
         stdDeviation="2.3"
         in="SourceAlpha"
         result="result0"
         id="feGaussianBlur963" />
      <feMorphology
         in="SourceAlpha"
         radius="6.6"
         result="result1"
         id="feMorphology965" />
      <feGaussianBlur
         stdDeviation="8.9"
         in="result1"
         id="feGaussianBlur967" />
      <feColorMatrix
         values="1 0 0 0 0 0 1 0 0 0 0 0 1 0 0 0 0 0 0.3 0"
         result="result91"
         id="feColorMatrix969" />
      <feComposite
         in="result0"
         operator="out"
         result="result2"
         in2="result91"
         id="feComposite971" />
      <feGaussianBlur
         stdDeviation="1.7"
         result="result4"
         id="feGaussianBlur973" />
      <feDiffuseLighting
         surfaceScale="10"
         id="feDiffuseLighting977">
        <feDistantLight
           azimuth="225"
           elevation="45"
           id="feDistantLight975" />
      </feDiffuseLighting>
      <feBlend
         in2="SourceGraphic"
         mode="multiply"
         id="feBlend979" />
      <feComposite
         in2="SourceAlpha"
         operator="in"
         result="result3"
         id="feComposite981" />
      <feSpecularLighting
         in="result4"
         surfaceScale="5"
         specularExponent="17.89999962"
         id="feSpecularLighting985">
        <feDistantLight
           azimuth="225"
           elevation="45"
           id="feDistantLight983" />
      </feSpecularLighting>
      <feComposite
         in2="result3"
         operator="atop"
         id="feComposite987" />
    </filter>
    <clipPath
       clipPathUnits="userSpaceOnUse"
       id="clipPath858">
      <use
         x="0"
         y="0"
         xlink:href="#g854"
         id="use860"
         width="100%"
         height="100%" />
    </clipPath>
  </defs>
  <sodipodi:namedview
     id="base"
     pagecolor="#ffffff"
     bordercolor="#666666"
     borderopacity="1.0"
     inkscape:pageopacity="0"
     inkscape:pageshadow="2"
     inkscape:zoom="0.35"
     inkscape:cx="-151.42858"
     inkscape:cy="-111.42859"
     inkscape:document-units="mm"
     inkscape:current-layer="layer1"
     showgrid="false"
     inkscape:window-width="1600"
     inkscape:window-height="836"
     inkscape:window-x="0"
     inkscape:window-y="27"
     inkscape:window-maximized="1"
     fit-margin-top="0"
     fit-margin-left="0"
     fit-margin-right="0"
     fit-margin-bottom="0"
     inkscape:pagecheckerboard="true"
     units="px" />
  <metadata
     id="metadata5">
    <rdf:RDF>
      <cc:Work
         rdf:about="">
        <dc:format>image/svg+xml</dc:format>
        <dc:type
           rdf:resource="http://purl.org/dc/dcmitype/StillImage" />
        <dc:title></dc:title>
      </cc:Work>
    </rdf:RDF>
  </metadata>
  <g
     inkscape:label="Calque 1"
     inkscape:groupmode="layer"
     id="layer1"
     transform="translate(-24.94643,-58.874996)">
    <flowRoot
       xml:space="preserve"
       id="flowRoot991"
       style="font-style:normal;font-weight:normal;font-size:40px;line-height:1.25;font-family:sans-serif;letter-spacing:0px;word-spacing:0px;fill:#000000;fill-opacity:1;stroke:none"
       transform="scale(0.26458333)"><flowRegion
         id="flowRegion993"><rect
           id="rect995"
           width="834.28571"
           height="534.28571"
           x="-1031.4286"
           y="91.09111" /></flowRegion><flowPara
         id="flowPara997" /></flowRoot>    <g
       id="g856"
       clip-path="url(#clipPath858)">
      <g
         inkscape:label="Clip"
         id="g854">
        <circle
           r="50.270832"
           cy="109.14583"
           cx="75.217262"
           id="path815"
           style="opacity:0.92000002;fill:#c8b7b7;fill-opacity:0.9879154;stroke-width:0.26458332;filter:url(#filter989)" />
      </g>
    </g>
    <g
       id="g1038"
       transform="matrix(0.4383516,0,0,0.4383516,159.59865,116.22204)">
      <circle
         r="33.438255"
         cy="-18.988094"
         cx="-241.90474"
         id="path999"
         style="opacity:0.92000002;fill:#d3c5c5;fill-opacity:0;stroke:#000000;stroke-width:8.90039825;stroke-miterlimit:4;stroke-dasharray:none;stroke-opacity:1" />
      <rect
         y="-27.303572"
         x="-211.66667"
         height="15.119046"
         width="102.80952"
         id="rect1001"
         style="opacity:0.92000002;fill:#000000;fill-opacity:1;stroke-width:0.21845424" />
      <rect
         y="-22.011906"
         x="-136.07144"
         height="35.529758"
         width="14.363097"
         id="rect1005"
         style="opacity:0.92000002;fill:#000000;fill-opacity:1;stroke-width:0.24683942" />
      <rect
         y="-22.011904"
         x="-155.72614"
         height="23.434521"
         width="14.363097"
         id="rect1005-3"
         style="opacity:0.92000002;fill:#000000;fill-opacity:1;stroke-width:0.20046863" />
    </g>
  </g>
</svg>
